{"frames": [

{
	"filename": "climb0",
	"frame": {"x":0,"y":94,"w":43,"h":94},
	"rotated": false,
	"trimmed": false,
	"spriteSourceSize": {"x":0,"y":0,"w":43,"h":94},
    "sourceSize": {"w":43,"h":94},
    "pivot": {"x":0.5, "y":1}
},
{
	"filename": "climb1",
	"frame": {"x":0,"y":0,"w":43,"h":94},
	"rotated": false,
	"trimmed": false,
	"spriteSourceSize": {"x":0,"y":0,"w":43,"h":94},
    "sourceSize": {"w":43,"h":94},
    "pivot": {"x":0.5, "y":1}
},
{
	"filename": "climb2",
	"frame": {"x":43,"y":0,"w":43,"h":94},
	"rotated": false,
	"trimmed": false,
	"spriteSourceSize": {"x":0,"y":0,"w":43,"h":94},
    "sourceSize": {"w":43,"h":94},
    "pivot": {"x":0.5, "y":1}
},
{
	"filename": "crouch0",
	"frame": {"x":0,"y":752,"w":125,"h":94},
	"rotated": false,
	"trimmed": false,
	"spriteSourceSize": {"x":0,"y":0,"w":125,"h":94},
    "sourceSize": {"w":125,"h":94},
    "pivot": {"x":0.5, "y":1}
},
{
	"filename": "crouch1",
	"frame": {"x":0,"y":846,"w":125,"h":94},
	"rotated": false,
	"trimmed": false,
	"spriteSourceSize": {"x":0,"y":0,"w":125,"h":94},
    "sourceSize": {"w":125,"h":94},
    "pivot": {"x":0.5, "y":1}
},
{
	"filename": "crouch3",
	"frame": {"x":0,"y":658,"w":125,"h":94},
	"rotated": false,
	"trimmed": false,
	"spriteSourceSize": {"x":0,"y":0,"w":125,"h":94},
    "sourceSize": {"w":125,"h":94},
    "pivot": {"x":0.5, "y":1}
},
{
	"filename": "marche_00",
	"frame": {"x":61,"y":376,"w":61,"h":141},
	"rotated": false,
	"trimmed": false,
	"spriteSourceSize": {"x":0,"y":0,"w":61,"h":141},
    "sourceSize": {"w":61,"h":141},
    "pivot": {"x":0.5, "y":1}
},
{
	"filename": "marche_01",
	"frame": {"x":0,"y":517,"w":61,"h":141},
	"rotated": false,
	"trimmed": false,
	"spriteSourceSize": {"x":0,"y":0,"w":61,"h":141},
    "sourceSize": {"w":61,"h":141},
    "pivot": {"x":0.5, "y":1}
},
{
	"filename": "marche_02",
	"frame": {"x":61,"y":235,"w":61,"h":141},
	"rotated": false,
	"trimmed": false,
	"spriteSourceSize": {"x":0,"y":0,"w":61,"h":141},
    "sourceSize": {"w":61,"h":141},
    "pivot": {"x":0.5, "y":1}
},
{
	"filename": "marche_03",
	"frame": {"x":43,"y":94,"w":61,"h":141},
	"rotated": false,
	"trimmed": false,
	"spriteSourceSize": {"x":0,"y":0,"w":61,"h":141},
    "sourceSize": {"w":61,"h":141},
    "pivot": {"x":0.5, "y":1}
},
{
	"filename": "marche_04",
	"frame": {"x":0,"y":376,"w":61,"h":141},
	"rotated": false,
	"trimmed": false,
	"spriteSourceSize": {"x":0,"y":0,"w":61,"h":141},
    "sourceSize": {"w":61,"h":141},
    "pivot": {"x":0.5, "y":1}
},
{
	"filename": "marche_05",
	"frame": {"x":0,"y":235,"w":61,"h":141},
	"rotated": false,
	"trimmed": false,
	"spriteSourceSize": {"x":0,"y":0,"w":61,"h":141},
    "sourceSize": {"w":61,"h":141},
    "pivot": {"x":0.5, "y":1}
},
{
	"filename": "marche_06",
	"frame": {"x":61,"y":517,"w":61,"h":141},
	"rotated": false,
	"trimmed": false,
	"spriteSourceSize": {"x":0,"y":0,"w":61,"h":141},
    "sourceSize": {"w":61,"h":141},
    "pivot": {"x":0.5, "y":1}
}],
"meta": {
	"app": "https://www.codeandweb.com/texturepacker",
	"version": "1.0",
	"image": "up_texture.png",
	"format": "RGBA8888",
	"size": {"w":125,"h":940},
	"scale": "1",
	"smartupdate": "$TexturePacker:SmartUpdate:0391d72481d299edf512369856c71d7a:d90ef03e68c7c73cfd5b044b25e4e868:c7574299fc89dbe4387e4b94b534fbc9$"
}
}
